session_id,participant__id_in_session,participant__code,page_index,app_name,page_name,epoch_time,seconds_on_page,subsession_pk,auto_submitted
1,2,nu1njrq1,1,tt,Instructions,1578471717,34,1,False
1,2,nu1njrq1,2,tt,Task,1578471735,18,1,False
1,2,nu1njrq1,3,tt,BeliefInstructions,1578471750,15,1,False
1,2,nu1njrq1,4,tt,Beliefs,1578471773,23,1,False
1,2,nu1njrq1,5,tt,Questions,1578471784,11,1,False
1,2,nu1njrq1,6,wordscra,Task,1578471845,61,1,False
1,2,nu1njrq1,7,postexp,Risk,1578471854,9,1,False
1,2,nu1njrq1,8,postexp,Pref1,1578471878,24,1,False
1,2,nu1njrq1,9,postexp,Pref2,1578471889,11,1,False
1,2,nu1njrq1,10,postexp,Demographics,1578471917,28,1,False
1,2,nu1njrq1,11,postexp,ResultsTask,1578471930,13,1,False
1,3,xy2o6qvg,1,tt,Instructions,1578471786,93,1,False
1,3,xy2o6qvg,2,tt,Task,1578471813,27,1,False
1,3,xy2o6qvg,3,tt,BeliefInstructions,1578471829,16,1,False
1,3,xy2o6qvg,4,tt,Beliefs,1578471912,83,1,False
1,3,xy2o6qvg,5,tt,Questions,1578471926,14,1,False
1,3,xy2o6qvg,6,wordscra,Task,1578471976,50,1,False
1,3,xy2o6qvg,7,postexp,Risk,1578471984,8,1,False
1,3,xy2o6qvg,8,postexp,Pref1,1578472031,47,1,False
1,3,xy2o6qvg,9,postexp,Pref2,1578472057,26,1,False
1,3,xy2o6qvg,10,postexp,Demographics,1578472088,31,1,False
1,3,xy2o6qvg,11,postexp,ResultsTask,1578472102,14,1,False
1,4,zf55kq2y,1,tt,Instructions,1578471955,79,1,False
1,4,zf55kq2y,2,tt,Task,1578471981,26,1,False
1,4,zf55kq2y,3,tt,BeliefInstructions,1578471992,11,1,False
1,4,zf55kq2y,4,tt,Beliefs,1578472016,24,1,False
1,4,zf55kq2y,5,tt,Questions,1578472026,10,1,False
1,4,zf55kq2y,6,wordscra,Task,1578472067,41,1,False
1,4,zf55kq2y,7,postexp,Risk,1578472075,8,1,False
1,4,zf55kq2y,8,postexp,Pref1,1578472106,31,1,False
1,4,zf55kq2y,9,postexp,Pref2,1578472233,127,1,False
1,4,zf55kq2y,10,postexp,Demographics,1578472272,39,1,False
1,4,zf55kq2y,11,postexp,ResultsTask,1578472283,11,1,False
1,5,hjv07ybi,1,tt,Instructions,1578474356,50,1,False
1,5,hjv07ybi,2,tt,Task,1578474381,25,1,False
1,5,hjv07ybi,3,tt,BeliefInstructions,1578474393,12,1,False
1,5,hjv07ybi,4,tt,Beliefs,1578474428,35,1,False
1,5,hjv07ybi,5,tt,Questions,1578474445,17,1,False
1,5,hjv07ybi,6,wordscra,Task,1578474486,41,1,False
1,5,hjv07ybi,7,postexp,Risk,1578474496,10,1,False
1,5,hjv07ybi,8,postexp,Pref1,1578474537,41,1,False
1,5,hjv07ybi,9,postexp,Pref2,1578474560,23,1,False
1,5,hjv07ybi,10,postexp,Demographics,1578474596,36,1,False
1,5,hjv07ybi,11,postexp,ResultsTask,1578474610,14,1,False
1,6,4f56hf2f,1,tt,Instructions,1578475722,31,1,False
1,6,4f56hf2f,2,tt,Task,1578475752,30,1,False
1,6,4f56hf2f,3,tt,BeliefInstructions,1578475771,19,1,False
1,6,4f56hf2f,4,tt,Beliefs,1578475816,45,1,False
1,6,4f56hf2f,5,tt,Questions,1578475826,10,1,False
1,6,4f56hf2f,6,wordscra,Task,1578475898,72,1,False
1,6,4f56hf2f,7,postexp,Risk,1578475905,7,1,False
1,6,4f56hf2f,8,postexp,Pref1,1578475929,24,1,False
1,6,4f56hf2f,9,postexp,Pref2,1578475942,13,1,False
1,6,4f56hf2f,10,postexp,Demographics,1578475965,23,1,False
1,6,4f56hf2f,11,postexp,ResultsTask,1578475978,13,1,False
1,7,840vsdxk,1,tt,Instructions,1578483900,37,1,False
1,7,840vsdxk,2,tt,Task,1578483932,32,1,False
1,7,840vsdxk,3,tt,BeliefInstructions,1578483939,7,1,False
1,7,840vsdxk,4,tt,Beliefs,1578483978,39,1,False
1,7,840vsdxk,5,tt,Questions,1578483988,10,1,False
1,7,840vsdxk,6,wordscra,Task,1578484044,56,1,False
1,7,840vsdxk,7,postexp,Risk,1578484059,15,1,False
1,7,840vsdxk,8,postexp,Pref1,1578484087,28,1,False
1,7,840vsdxk,9,postexp,Pref2,1578484102,15,1,False
1,7,840vsdxk,10,postexp,Demographics,1578484130,28,1,False
1,7,840vsdxk,11,postexp,ResultsTask,1578484141,11,1,False
1,8,pj8fw2j8,1,tt,Instructions,1578484311,57,1,False
1,8,pj8fw2j8,2,tt,Task,1578484352,41,1,False
1,8,pj8fw2j8,3,tt,BeliefInstructions,1578484375,23,1,False
1,8,pj8fw2j8,4,tt,Beliefs,1578484409,34,1,False
1,8,pj8fw2j8,5,tt,Questions,1578484423,14,1,False
1,8,pj8fw2j8,6,wordscra,Task,1578484473,50,1,False
1,8,pj8fw2j8,7,postexp,Risk,1578484481,8,1,False
1,8,pj8fw2j8,8,postexp,Pref1,1578484531,50,1,False
1,8,pj8fw2j8,9,postexp,Pref2,1578484546,15,1,False
1,8,pj8fw2j8,10,postexp,Demographics,1578484590,44,1,False
1,8,pj8fw2j8,11,postexp,ResultsTask,1578484600,10,1,False
1,9,kt80mhpi,1,tt,Instructions,1578485581,42,1,False
1,9,kt80mhpi,2,tt,Task,1578485605,24,1,False
1,9,kt80mhpi,3,tt,BeliefInstructions,1578485616,11,1,False
1,9,kt80mhpi,4,tt,Beliefs,1578485642,26,1,False
1,9,kt80mhpi,5,tt,Questions,1578485657,15,1,False
1,9,kt80mhpi,6,wordscra,Task,1578485761,104,1,False
1,9,kt80mhpi,7,postexp,Risk,1578485772,11,1,False
1,9,kt80mhpi,8,postexp,Pref1,1578485799,27,1,False
1,9,kt80mhpi,9,postexp,Pref2,1578485815,16,1,False
1,9,kt80mhpi,10,postexp,Demographics,1578485866,51,1,False
1,9,kt80mhpi,11,postexp,ResultsTask,1578485880,14,1,False
1,10,48k161s7,1,tt,Instructions,1578487004,50,1,False
1,10,48k161s7,2,tt,Task,1578487036,32,1,False
1,10,48k161s7,3,tt,BeliefInstructions,1578487049,13,1,False
1,10,48k161s7,4,tt,Beliefs,1578487088,39,1,False
1,10,48k161s7,5,tt,Questions,1578487107,19,1,False
1,10,48k161s7,6,wordscra,Task,1578487153,46,1,False
1,10,48k161s7,7,postexp,Risk,1578487172,19,1,False
1,10,48k161s7,8,postexp,Pref1,1578487209,37,1,False
1,10,48k161s7,9,postexp,Pref2,1578487227,18,1,False
1,10,48k161s7,10,postexp,Demographics,1578487253,26,1,False
1,10,48k161s7,11,postexp,ResultsTask,1578487261,8,1,False
1,11,0sr0dz4u,1,tt,Instructions,1578488449,85,1,False
1,11,0sr0dz4u,2,tt,Task,1578488496,47,1,False
1,11,0sr0dz4u,3,tt,BeliefInstructions,1578488525,29,1,False
1,11,0sr0dz4u,4,tt,Beliefs,1578488562,37,1,False
1,11,0sr0dz4u,5,tt,Questions,1578488591,29,1,False
1,11,0sr0dz4u,6,wordscra,Task,1578488652,61,1,False
1,11,0sr0dz4u,7,postexp,Risk,1578488674,22,1,False
1,11,0sr0dz4u,8,postexp,Pref1,1578488738,64,1,False
1,11,0sr0dz4u,9,postexp,Pref2,1578488759,21,1,False
1,11,0sr0dz4u,10,postexp,Demographics,1578488821,62,1,False
1,11,0sr0dz4u,11,postexp,ResultsTask,1578488830,9,1,False
1,12,x5o60chy,1,tt,Instructions,1578489098,43,1,False
1,12,x5o60chy,2,tt,Task,1578489147,49,1,False
1,12,x5o60chy,3,tt,BeliefInstructions,1578489162,15,1,False
1,12,x5o60chy,4,tt,Beliefs,1578489215,53,1,False
1,12,x5o60chy,5,tt,Questions,1578489231,16,1,False
1,12,x5o60chy,6,wordscra,Task,1578489332,101,1,False
1,12,x5o60chy,7,postexp,Risk,1578489357,25,1,False
1,12,x5o60chy,8,postexp,Pref1,1578489389,32,1,False
1,12,x5o60chy,9,postexp,Pref2,1578489418,29,1,False
1,12,x5o60chy,10,postexp,Demographics,1578489600,182,1,False
1,12,x5o60chy,11,postexp,ResultsTask,1578489611,11,1,False
1,13,ro8bjv8u,1,tt,Instructions,1578491011,30,1,False
1,13,ro8bjv8u,2,tt,Task,1578491034,23,1,False
1,13,ro8bjv8u,3,tt,BeliefInstructions,1578491065,31,1,False
1,13,ro8bjv8u,4,tt,Beliefs,1578491097,32,1,False
1,13,ro8bjv8u,5,tt,Questions,1578491116,19,1,False
1,13,ro8bjv8u,6,wordscra,Task,1578491142,26,1,False
1,13,ro8bjv8u,7,postexp,Risk,1578491150,8,1,False
1,13,ro8bjv8u,8,postexp,Pref1,1578491194,44,1,False
1,13,ro8bjv8u,9,postexp,Pref2,1578491244,50,1,False
1,13,ro8bjv8u,10,postexp,Demographics,1578491319,75,1,False
1,13,ro8bjv8u,11,postexp,ResultsTask,1578491327,8,1,False
1,14,i515u53v,1,tt,Instructions,1578493192,380,1,False
1,14,i515u53v,2,tt,Task,1578493216,24,1,False
1,14,i515u53v,3,tt,BeliefInstructions,1578493221,5,1,False
1,14,i515u53v,4,tt,Beliefs,1578493243,22,1,False
1,14,i515u53v,5,tt,Questions,1578493248,5,1,False
1,14,i515u53v,6,wordscra,Task,1578493324,76,1,False
1,14,i515u53v,7,postexp,Risk,1578493331,7,1,False
1,14,i515u53v,8,postexp,Pref1,1578493340,9,1,False
1,14,i515u53v,9,postexp,Pref2,1578493348,8,1,False
1,14,i515u53v,10,postexp,Demographics,1578493376,28,1,False
1,14,i515u53v,11,postexp,ResultsTask,1578493404,28,1,False
1,15,41au2dmv,1,tt,Instructions,1578493268,30,1,False
1,15,41au2dmv,2,tt,Task,1578493286,18,1,False
1,15,41au2dmv,3,tt,BeliefInstructions,1578493294,8,1,False
1,15,41au2dmv,4,tt,Beliefs,1578493331,37,1,False
1,15,41au2dmv,5,tt,Questions,1578493343,12,1,False
1,15,41au2dmv,6,wordscra,Task,1578493400,57,1,False
1,15,41au2dmv,7,postexp,Risk,1578493407,7,1,False
1,15,41au2dmv,8,postexp,Pref1,1578493434,27,1,False
1,15,41au2dmv,9,postexp,Pref2,1578493452,18,1,False
1,15,41au2dmv,10,postexp,Demographics,1578493490,38,1,False
1,15,41au2dmv,11,postexp,ResultsTask,1578493499,9,1,False
1,16,i9mw62hq,1,tt,Instructions,1578494076,31,1,False
1,16,i9mw62hq,2,tt,Task,1578494093,17,1,False
1,16,i9mw62hq,3,tt,BeliefInstructions,1578494101,8,1,False
1,16,i9mw62hq,4,tt,Beliefs,1578494117,16,1,False
1,16,i9mw62hq,5,tt,Questions,1578494128,11,1,False
1,16,i9mw62hq,6,wordscra,Task,1578494159,31,1,False
1,16,i9mw62hq,7,postexp,Risk,1578494181,22,1,False
1,16,i9mw62hq,8,postexp,Pref1,1578494199,18,1,False
1,16,i9mw62hq,9,postexp,Pref2,1578494212,13,1,False
1,16,i9mw62hq,10,postexp,Demographics,1578494241,29,1,False
1,16,i9mw62hq,11,postexp,ResultsTask,1578494249,8,1,False
1,17,za4mab4v,1,tt,Instructions,1578496377,49,1,False
1,17,za4mab4v,2,tt,Task,1578496408,31,1,False
1,17,za4mab4v,3,tt,BeliefInstructions,1578496429,21,1,False
1,17,za4mab4v,4,tt,Beliefs,1578496464,35,1,False
1,17,za4mab4v,5,tt,Questions,1578496488,24,1,False
1,17,za4mab4v,6,wordscra,Task,1578496529,41,1,False
1,17,za4mab4v,7,postexp,Risk,1578496541,12,1,False
1,17,za4mab4v,8,postexp,Pref1,1578496596,55,1,False
1,17,za4mab4v,9,postexp,Pref2,1578496632,36,1,False
1,17,za4mab4v,10,postexp,Demographics,1578496704,72,1,False
1,17,za4mab4v,11,postexp,ResultsTask,1578496718,14,1,False
1,18,c5e2jkcl,1,tt,Instructions,1578503003,75,1,False
1,18,c5e2jkcl,2,tt,Task,1578503035,32,1,False
1,18,c5e2jkcl,3,tt,BeliefInstructions,1578503070,35,1,False
1,18,c5e2jkcl,4,tt,Beliefs,1578503106,36,1,False
1,18,c5e2jkcl,5,tt,Questions,1578503119,13,1,False
1,18,c5e2jkcl,6,wordscra,Task,1578503276,157,1,False
1,18,c5e2jkcl,7,postexp,Risk,1578503317,41,1,False
1,18,c5e2jkcl,8,postexp,Pref1,1578503368,51,1,False
1,18,c5e2jkcl,9,postexp,Pref2,1578503413,45,1,False
1,18,c5e2jkcl,10,postexp,Demographics,1578503477,64,1,False
1,18,c5e2jkcl,11,postexp,ResultsTask,1578503486,9,1,False
1,19,v3jebmrr,1,tt,Instructions,1578507572,41,1,False
1,19,v3jebmrr,2,tt,Task,1578507610,38,1,False
1,19,v3jebmrr,3,tt,BeliefInstructions,1578507621,11,1,False
1,19,v3jebmrr,4,tt,Beliefs,1578507649,28,1,False
1,19,v3jebmrr,5,tt,Questions,1578507659,10,1,False
1,19,v3jebmrr,6,wordscra,Task,1578507701,42,1,False
1,19,v3jebmrr,7,postexp,Risk,1578507715,14,1,False
1,19,v3jebmrr,8,postexp,Pref1,1578507738,23,1,False
1,19,v3jebmrr,9,postexp,Pref2,1578507762,24,1,False
1,19,v3jebmrr,10,postexp,Demographics,1578507811,49,1,False
1,19,v3jebmrr,11,postexp,ResultsTask,1578507820,9,1,False
1,21,a4wrqgiz,1,tt,Instructions,1578508947,34,1,False
1,21,a4wrqgiz,2,tt,Task,1578508982,35,1,False
1,21,a4wrqgiz,3,tt,BeliefInstructions,1578508986,4,1,False
1,21,a4wrqgiz,4,tt,Beliefs,1578509020,34,1,False
1,21,a4wrqgiz,5,tt,Questions,1578509034,14,1,False
1,21,a4wrqgiz,6,wordscra,Task,1578509108,74,1,False
1,21,a4wrqgiz,7,postexp,Risk,1578509118,10,1,False
1,21,a4wrqgiz,8,postexp,Pref1,1578509149,31,1,False
1,21,a4wrqgiz,9,postexp,Pref2,1578509166,17,1,False
1,21,a4wrqgiz,10,postexp,Demographics,1578509202,36,1,False
1,21,a4wrqgiz,11,postexp,ResultsTask,1578509206,4,1,False
1,22,9v2y49gc,1,tt,Instructions,1578510394,42,1,False
1,22,9v2y49gc,2,tt,Task,1578510426,32,1,False
1,22,9v2y49gc,3,tt,BeliefInstructions,1578510437,11,1,False
1,22,9v2y49gc,4,tt,Beliefs,1578510479,42,1,False
1,22,9v2y49gc,5,tt,Questions,1578510497,18,1,False
1,22,9v2y49gc,6,wordscra,Task,1578510539,42,1,False
1,22,9v2y49gc,7,postexp,Risk,1578510553,14,1,False
1,22,9v2y49gc,8,postexp,Pref1,1578510579,26,1,False
1,22,9v2y49gc,9,postexp,Pref2,1578510593,14,1,False
1,22,9v2y49gc,10,postexp,Demographics,1578510658,65,1,False
1,22,9v2y49gc,11,postexp,ResultsTask,1578510672,14,1,False
1,23,o20vvbgi,1,tt,Instructions,1578511966,26,1,False
1,23,o20vvbgi,2,tt,Task,1578511980,14,1,False
1,23,o20vvbgi,3,tt,BeliefInstructions,1578511985,5,1,False
1,23,o20vvbgi,4,tt,Beliefs,1578512023,38,1,False
1,23,o20vvbgi,5,tt,Questions,1578512039,16,1,False
1,23,o20vvbgi,6,wordscra,Task,1578512071,32,1,False
1,23,o20vvbgi,7,postexp,Risk,1578512077,6,1,False
1,23,o20vvbgi,8,postexp,Pref1,1578512097,20,1,False
1,23,o20vvbgi,9,postexp,Pref2,1578512112,15,1,False
1,23,o20vvbgi,10,postexp,Demographics,1578512156,44,1,False
1,23,o20vvbgi,11,postexp,ResultsTask,1578512165,9,1,False
1,24,m47rz3tg,1,tt,Instructions,1578513118,11,1,False
1,24,m47rz3tg,2,tt,Task,1578513139,21,1,False
1,24,m47rz3tg,3,tt,BeliefInstructions,1578513150,11,1,False
1,24,m47rz3tg,4,tt,Beliefs,1578513173,23,1,False
1,24,m47rz3tg,5,tt,Questions,1578513185,12,1,False
1,24,m47rz3tg,6,wordscra,Task,1578513247,62,1,False
1,24,m47rz3tg,7,postexp,Risk,1578513272,25,1,False
1,24,m47rz3tg,8,postexp,Pref1,1578513296,24,1,False
1,24,m47rz3tg,9,postexp,Pref2,1578513309,13,1,False
1,24,m47rz3tg,10,postexp,Demographics,1578513343,34,1,False
1,24,m47rz3tg,11,postexp,ResultsTask,1578513394,51,1,False
1,25,x8ncymk2,1,tt,Instructions,1578513826,32,1,False
1,25,x8ncymk2,2,tt,Task,1578513857,31,1,False
1,25,x8ncymk2,3,tt,BeliefInstructions,1578513864,7,1,False
1,25,x8ncymk2,4,tt,Beliefs,1578513896,32,1,False
1,25,x8ncymk2,5,tt,Questions,1578513909,13,1,False
1,25,x8ncymk2,6,wordscra,Task,1578513962,53,1,False
1,25,x8ncymk2,7,postexp,Risk,1578513971,9,1,False
1,25,x8ncymk2,8,postexp,Pref1,1578513993,22,1,False
1,25,x8ncymk2,9,postexp,Pref2,1578514011,18,1,False
1,25,x8ncymk2,10,postexp,Demographics,1578514041,30,1,False
1,25,x8ncymk2,11,postexp,ResultsTask,1578514055,14,1,False
1,26,zh21ypv4,1,tt,Instructions,1578513875,20,1,False
1,26,zh21ypv4,2,tt,Task,1578513919,44,1,False
1,26,zh21ypv4,3,tt,BeliefInstructions,1578513932,13,1,False
1,26,zh21ypv4,4,tt,Beliefs,1578513968,36,1,False
1,26,zh21ypv4,5,tt,Questions,1578513995,27,1,False
1,26,zh21ypv4,6,wordscra,Task,1578514030,35,1,False
1,26,zh21ypv4,7,postexp,Risk,1578514038,8,1,False
1,26,zh21ypv4,8,postexp,Pref1,1578514074,36,1,False
1,26,zh21ypv4,9,postexp,Pref2,1578514092,18,1,False
1,26,zh21ypv4,10,postexp,Demographics,1578514127,35,1,False
1,26,zh21ypv4,11,postexp,ResultsTask,1578514136,9,1,False
1,27,22b2kid8,1,tt,Instructions,1578514343,35,1,False
1,27,22b2kid8,2,tt,Task,1578514358,15,1,False
1,27,22b2kid8,3,tt,BeliefInstructions,1578514372,14,1,False
1,27,22b2kid8,4,tt,Beliefs,1578514412,40,1,False
1,27,22b2kid8,5,tt,Questions,1578514427,15,1,False
1,27,22b2kid8,6,wordscra,Task,1578514463,36,1,False
1,27,22b2kid8,7,postexp,Risk,1578514470,7,1,False
1,27,22b2kid8,8,postexp,Pref1,1578514494,24,1,False
1,27,22b2kid8,9,postexp,Pref2,1578514508,14,1,False
1,27,22b2kid8,10,postexp,Demographics,1578514532,24,1,False
1,27,22b2kid8,11,postexp,ResultsTask,1578514541,9,1,False
1,28,69v0yh9h,1,tt,Instructions,1578514356,39,1,False
1,28,69v0yh9h,2,tt,Task,1578514378,22,1,False
1,28,69v0yh9h,3,tt,BeliefInstructions,1578514387,9,1,False
1,28,69v0yh9h,4,tt,Beliefs,1578514418,31,1,False
1,28,69v0yh9h,5,tt,Questions,1578514431,13,1,False
1,28,69v0yh9h,6,wordscra,Task,1578514480,49,1,False
1,28,69v0yh9h,7,postexp,Risk,1578514489,9,1,False
1,28,69v0yh9h,8,postexp,Pref1,1578514520,31,1,False
1,28,69v0yh9h,9,postexp,Pref2,1578514544,24,1,False
1,28,69v0yh9h,10,postexp,Demographics,1578514573,29,1,False
1,28,69v0yh9h,11,postexp,ResultsTask,1578514596,23,1,False
1,29,f55dmmy3,1,tt,Instructions,1578516566,63,1,False
1,29,f55dmmy3,2,tt,Task,1578516612,46,1,False
1,29,f55dmmy3,3,tt,BeliefInstructions,1578516638,26,1,False
1,29,f55dmmy3,4,tt,Beliefs,1578516683,45,1,False
1,29,f55dmmy3,5,tt,Questions,1578516720,37,1,False
1,29,f55dmmy3,6,wordscra,Task,1578516838,118,1,False
1,29,f55dmmy3,7,postexp,Risk,1578516852,14,1,False
1,29,f55dmmy3,8,postexp,Pref1,1578516891,39,1,False
1,29,f55dmmy3,9,postexp,Pref2,1578516913,22,1,False
1,29,f55dmmy3,10,postexp,Demographics,1578516962,49,1,False
1,29,f55dmmy3,11,postexp,ResultsTask,1578516969,7,1,False
1,31,cdn7q2mw,1,tt,Instructions,1578520067,77,1,False
1,31,cdn7q2mw,2,tt,Task,1578520089,22,1,False
1,31,cdn7q2mw,3,tt,BeliefInstructions,1578520097,8,1,False
1,31,cdn7q2mw,4,tt,Beliefs,1578520122,25,1,False
1,31,cdn7q2mw,5,tt,Questions,1578520133,11,1,False
1,31,cdn7q2mw,6,wordscra,Task,1578520235,102,1,False
1,31,cdn7q2mw,7,postexp,Risk,1578520362,127,1,False
1,31,cdn7q2mw,8,postexp,Pref1,1578520415,53,1,False
1,31,cdn7q2mw,9,postexp,Pref2,1578520434,19,1,False
1,31,cdn7q2mw,10,postexp,Demographics,1578520461,27,1,False
1,31,cdn7q2mw,11,postexp,ResultsTask,1578520472,11,1,False
1,32,7he1pkf8,1,tt,Instructions,1578520178,49,1,False
1,32,7he1pkf8,2,tt,Task,1578520210,32,1,False
1,32,7he1pkf8,3,tt,BeliefInstructions,1578520230,20,1,False
1,32,7he1pkf8,4,tt,Beliefs,1578520273,43,1,False
1,32,7he1pkf8,5,tt,Questions,1578520294,21,1,False
1,32,7he1pkf8,6,wordscra,Task,1578520346,52,1,False
1,32,7he1pkf8,7,postexp,Risk,1578520354,8,1,False
1,32,7he1pkf8,8,postexp,Pref1,1578520392,38,1,False
1,32,7he1pkf8,9,postexp,Pref2,1578520413,21,1,False
1,32,7he1pkf8,10,postexp,Demographics,1578520449,36,1,False
1,32,7he1pkf8,11,postexp,ResultsTask,1578520456,7,1,False
1,33,crnf6dv6,1,tt,Instructions,1578522488,101,1,False
1,33,crnf6dv6,2,tt,Task,1578522554,66,1,False
1,33,crnf6dv6,3,tt,BeliefInstructions,1578522563,9,1,False
1,33,crnf6dv6,4,tt,Beliefs,1578522636,73,1,False
1,33,crnf6dv6,5,tt,Questions,1578522650,14,1,False
1,33,crnf6dv6,6,wordscra,Task,1578522714,64,1,False
1,33,crnf6dv6,7,postexp,Risk,1578522741,27,1,False
1,33,crnf6dv6,8,postexp,Pref1,1578522784,43,1,False
1,33,crnf6dv6,9,postexp,Pref2,1578522807,23,1,False
1,33,crnf6dv6,10,postexp,Demographics,1578522864,57,1,False
1,33,crnf6dv6,11,postexp,ResultsTask,1578522873,9,1,False
1,34,4vhsalxm,1,tt,Instructions,1578522674,53,1,False
1,35,rjwnx9af,1,tt,Instructions,1578524661,75,1,False
1,35,rjwnx9af,2,tt,Task,1578524715,54,1,False
1,35,rjwnx9af,3,tt,BeliefInstructions,1578524745,30,1,False
1,35,rjwnx9af,4,tt,Beliefs,1578524808,63,1,False
1,35,rjwnx9af,5,tt,Questions,1578524835,27,1,False
1,35,rjwnx9af,6,wordscra,Task,1578524982,147,1,False
1,35,rjwnx9af,7,postexp,Risk,1578525001,19,1,False
1,35,rjwnx9af,8,postexp,Pref1,1578525048,47,1,False
1,35,rjwnx9af,9,postexp,Pref2,1578525073,25,1,False
1,35,rjwnx9af,10,postexp,Demographics,1578525152,79,1,False
1,35,rjwnx9af,11,postexp,ResultsTask,1578525174,22,1,False
1,36,4q0pvnnd,1,tt,Instructions,1578524755,25,1,False
1,36,4q0pvnnd,2,tt,Task,1578524777,22,1,False
1,36,4q0pvnnd,3,tt,BeliefInstructions,1578524786,9,1,False
1,36,4q0pvnnd,4,tt,Beliefs,1578524817,31,1,False
1,36,4q0pvnnd,5,tt,Questions,1578524846,29,1,False
1,36,4q0pvnnd,6,wordscra,Task,1578524887,41,1,False
1,36,4q0pvnnd,7,postexp,Risk,1578524895,8,1,False
1,36,4q0pvnnd,8,postexp,Pref1,1578524931,36,1,False
1,36,4q0pvnnd,9,postexp,Pref2,1578524963,32,1,False
1,36,4q0pvnnd,10,postexp,Demographics,1578524994,31,1,False
1,36,4q0pvnnd,11,postexp,ResultsTask,1578525010,16,1,False
1,37,3ld5rk55,1,tt,Instructions,1578525191,13,1,False
1,37,3ld5rk55,2,tt,Task,1578525231,40,1,False
1,37,3ld5rk55,3,tt,BeliefInstructions,1578525244,13,1,False
1,37,3ld5rk55,4,tt,Beliefs,1578525273,29,1,False
1,37,3ld5rk55,5,tt,Questions,1578525289,16,1,False
1,37,3ld5rk55,6,wordscra,Task,1578525325,36,1,False
1,37,3ld5rk55,7,postexp,Risk,1578525332,7,1,False
1,37,3ld5rk55,8,postexp,Pref1,1578525359,27,1,False
1,37,3ld5rk55,9,postexp,Pref2,1578525375,16,1,False
1,37,3ld5rk55,10,postexp,Demographics,1578525409,34,1,False
1,37,3ld5rk55,11,postexp,ResultsTask,1578525421,12,1,False
1,38,94onuztq,1,tt,Instructions,1578526473,76,1,False
1,38,94onuztq,2,tt,Task,1578526520,47,1,False
1,38,94onuztq,3,tt,BeliefInstructions,1578526536,16,1,False
1,38,94onuztq,4,tt,Beliefs,1578526594,58,1,False
1,38,94onuztq,5,tt,Questions,1578526614,20,1,False
1,38,94onuztq,6,wordscra,Task,1578526673,59,1,False
1,38,94onuztq,7,postexp,Risk,1578526685,12,1,False
1,38,94onuztq,8,postexp,Pref1,1578526718,33,1,False
1,38,94onuztq,9,postexp,Pref2,1578526739,21,1,False
1,38,94onuztq,10,postexp,Demographics,1578526791,52,1,False
1,38,94onuztq,11,postexp,ResultsTask,1578526814,23,1,False
1,39,iflrimwy,1,tt,Instructions,1578530676,23,1,False
1,40,kbazrmya,1,tt,Instructions,1578533651,75,1,False
1,40,kbazrmya,2,tt,Task,1578533683,32,1,False
1,40,kbazrmya,3,tt,BeliefInstructions,1578533694,11,1,False
1,40,kbazrmya,4,tt,Beliefs,1578533722,28,1,False
1,40,kbazrmya,5,tt,Questions,1578533746,24,1,False
1,40,kbazrmya,6,wordscra,Task,1578533809,63,1,False
1,40,kbazrmya,7,postexp,Risk,1578533817,8,1,False
1,40,kbazrmya,8,postexp,Pref1,1578533855,38,1,False
1,40,kbazrmya,9,postexp,Pref2,1578533881,26,1,False
1,40,kbazrmya,10,postexp,Demographics,1578533941,60,1,False
1,40,kbazrmya,11,postexp,ResultsTask,1578533957,16,1,False
1,41,2wg2gwwy,1,tt,Instructions,1578534342,41,1,False
1,41,2wg2gwwy,2,tt,Task,1578534382,40,1,False
1,41,2wg2gwwy,3,tt,BeliefInstructions,1578534394,12,1,False
1,41,2wg2gwwy,4,tt,Beliefs,1578534414,20,1,False
1,41,2wg2gwwy,5,tt,Questions,1578534425,11,1,False
1,41,2wg2gwwy,6,wordscra,Task,1578534490,65,1,False
1,41,2wg2gwwy,7,postexp,Risk,1578534501,11,1,False
1,41,2wg2gwwy,8,postexp,Pref1,1578534531,30,1,False
1,41,2wg2gwwy,9,postexp,Pref2,1578534551,20,1,False
1,41,2wg2gwwy,10,postexp,Demographics,1578534615,64,1,False
1,41,2wg2gwwy,11,postexp,ResultsTask,1578534623,8,1,False
1,42,msptkd98,1,tt,Instructions,1578534694,56,1,False
1,42,msptkd98,2,tt,Task,1578534723,29,1,False
1,42,msptkd98,3,tt,BeliefInstructions,1578534736,13,1,False
1,42,msptkd98,4,tt,Beliefs,1578534789,53,1,False
1,42,msptkd98,5,tt,Questions,1578534815,26,1,False
1,42,msptkd98,6,wordscra,Task,1578534862,47,1,False
1,42,msptkd98,7,postexp,Risk,1578534874,12,1,False
1,42,msptkd98,8,postexp,Pref1,1578534905,31,1,False
1,42,msptkd98,9,postexp,Pref2,1578534930,25,1,False
1,42,msptkd98,10,postexp,Demographics,1578534977,47,1,False
1,42,msptkd98,11,postexp,ResultsTask,1578534982,5,1,False
1,43,hoh0rjaf,1,tt,Instructions,1578535121,25,1,False
1,43,hoh0rjaf,2,tt,Task,1578535144,23,1,False
1,43,hoh0rjaf,3,tt,BeliefInstructions,1578535152,8,1,False
1,43,hoh0rjaf,4,tt,Beliefs,1578535180,28,1,False
1,43,hoh0rjaf,5,tt,Questions,1578535197,17,1,False
1,43,hoh0rjaf,6,wordscra,Task,1578535224,27,1,False
1,43,hoh0rjaf,7,postexp,Risk,1578535229,5,1,False
1,43,hoh0rjaf,8,postexp,Pref1,1578535250,21,1,False
1,43,hoh0rjaf,9,postexp,Pref2,1578535277,27,1,False
1,43,hoh0rjaf,10,postexp,Demographics,1578535303,26,1,False
1,43,hoh0rjaf,11,postexp,ResultsTask,1578535306,3,1,False
1,44,q3l018tx,1,tt,Instructions,1578562434,81,1,False
1,44,q3l018tx,2,tt,Task,1578562472,38,1,False
1,44,q3l018tx,3,tt,BeliefInstructions,1578562502,30,1,False
1,44,q3l018tx,4,tt,Beliefs,1578562582,80,1,False
1,44,q3l018tx,5,tt,Questions,1578562624,42,1,False
1,44,q3l018tx,6,wordscra,Task,1578562712,88,1,False
1,44,q3l018tx,7,postexp,Risk,1578562748,36,1,False
1,44,q3l018tx,8,postexp,Pref1,1578562813,65,1,False
1,44,q3l018tx,9,postexp,Pref2,1578562865,52,1,False
1,44,q3l018tx,10,postexp,Demographics,1578562961,96,1,False
1,44,q3l018tx,11,postexp,ResultsTask,1578562984,23,1,False
1,45,4pkylttc,1,tt,Instructions,1578563372,32,1,False
1,45,4pkylttc,2,tt,Task,1578563401,29,1,False
1,45,4pkylttc,3,tt,BeliefInstructions,1578563412,11,1,False
1,45,4pkylttc,4,tt,Beliefs,1578563460,48,1,False
1,45,4pkylttc,5,tt,Questions,1578563476,16,1,False
1,45,4pkylttc,6,wordscra,Task,1578563504,28,1,False
1,45,4pkylttc,7,postexp,Risk,1578563512,8,1,False
1,45,4pkylttc,8,postexp,Pref1,1578563561,49,1,False
1,45,4pkylttc,9,postexp,Pref2,1578563584,23,1,False
1,45,4pkylttc,10,postexp,Demographics,1578563617,33,1,False
1,45,4pkylttc,11,postexp,ResultsTask,1578563626,9,1,False
1,46,9ma4nbl9,1,tt,Instructions,1578581217,31,1,False
1,46,9ma4nbl9,2,tt,Task,1578581239,22,1,False
1,46,9ma4nbl9,3,tt,BeliefInstructions,1578581246,7,1,False
1,46,9ma4nbl9,4,tt,Beliefs,1578581286,40,1,False
1,46,9ma4nbl9,5,tt,Questions,1578581295,9,1,False
1,46,9ma4nbl9,6,wordscra,Task,1578581426,131,1,False
1,46,9ma4nbl9,7,postexp,Risk,1578581437,11,1,False
1,46,9ma4nbl9,8,postexp,Pref1,1578581470,33,1,False
1,46,9ma4nbl9,9,postexp,Pref2,1578581480,10,1,False
1,46,9ma4nbl9,10,postexp,Demographics,1578581510,30,1,False
1,46,9ma4nbl9,11,postexp,ResultsTask,1578581515,5,1,False
1,47,hxpx8v3r,1,tt,Instructions,1578593353,24,1,False
1,47,hxpx8v3r,2,tt,Task,1578593377,24,1,False
1,47,hxpx8v3r,3,tt,BeliefInstructions,1578593394,17,1,False
1,47,hxpx8v3r,4,tt,Beliefs,1578593423,29,1,False
1,47,hxpx8v3r,5,tt,Questions,1578593433,10,1,False
1,47,hxpx8v3r,6,wordscra,Task,1578593468,35,1,False
1,47,hxpx8v3r,7,postexp,Risk,1578593477,9,1,False
1,47,hxpx8v3r,8,postexp,Pref1,1578593492,15,1,False
1,47,hxpx8v3r,9,postexp,Pref2,1578593509,17,1,False
1,47,hxpx8v3r,10,postexp,Demographics,1578593559,50,1,False
1,47,hxpx8v3r,11,postexp,ResultsTask,1578593564,5,1,False
1,49,vvqqsyd4,1,tt,Instructions,1578599982,57,1,False
1,49,vvqqsyd4,2,tt,Task,1578600013,31,1,False
1,49,vvqqsyd4,3,tt,BeliefInstructions,1578600029,16,1,False
1,49,vvqqsyd4,4,tt,Beliefs,1578600057,28,1,False
1,49,vvqqsyd4,5,tt,Questions,1578600069,12,1,False
1,49,vvqqsyd4,6,wordscra,Task,1578600127,58,1,False
1,49,vvqqsyd4,7,postexp,Risk,1578600145,18,1,False
1,49,vvqqsyd4,8,postexp,Pref1,1578600190,45,1,False
1,49,vvqqsyd4,9,postexp,Pref2,1578600223,33,1,False
1,49,vvqqsyd4,10,postexp,Demographics,1578600258,35,1,False
1,49,vvqqsyd4,11,postexp,ResultsTask,1578600269,11,1,False
1,51,a4zpvn7k,1,tt,Instructions,1578603145,83,1,False
1,51,a4zpvn7k,2,tt,Task,1578603183,38,1,False
1,51,a4zpvn7k,3,tt,BeliefInstructions,1578603195,12,1,False
1,51,a4zpvn7k,4,tt,Beliefs,1578603232,37,1,False
1,51,a4zpvn7k,5,tt,Questions,1578603252,20,1,False
1,51,a4zpvn7k,6,wordscra,Task,1578603450,198,1,False
1,51,a4zpvn7k,7,postexp,Risk,1578603460,10,1,False
1,51,a4zpvn7k,8,postexp,Pref1,1578603513,53,1,False
1,51,a4zpvn7k,9,postexp,Pref2,1578603543,30,1,False
1,51,a4zpvn7k,10,postexp,Demographics,1578603576,33,1,False
1,51,a4zpvn7k,11,postexp,ResultsTask,1578603587,11,1,False
1,52,q41vuuj2,1,tt,Instructions,1578603109,9,1,False
1,52,q41vuuj2,2,tt,Task,1578603150,41,1,False
1,52,q41vuuj2,3,tt,BeliefInstructions,1578603158,8,1,False
1,52,q41vuuj2,4,tt,Beliefs,1578603184,26,1,False
1,52,q41vuuj2,5,tt,Questions,1578603201,17,1,False
1,52,q41vuuj2,6,wordscra,Task,1578603240,39,1,False
1,52,q41vuuj2,7,postexp,Risk,1578603257,17,1,False
1,52,q41vuuj2,8,postexp,Pref1,1578603283,26,1,False
1,52,q41vuuj2,9,postexp,Pref2,1578603296,13,1,False
1,52,q41vuuj2,10,postexp,Demographics,1578603320,24,1,False
1,52,q41vuuj2,11,postexp,ResultsTask,1578603329,9,1,False
1,53,6ccyr0dr,1,tt,Instructions,1578603464,30,1,False
1,53,6ccyr0dr,2,tt,Task,1578603492,28,1,False
1,53,6ccyr0dr,3,tt,BeliefInstructions,1578603507,15,1,False
1,53,6ccyr0dr,4,tt,Beliefs,1578603538,31,1,False
1,53,6ccyr0dr,5,tt,Questions,1578603557,19,1,False
1,53,6ccyr0dr,6,wordscra,Task,1578603634,77,1,False
1,53,6ccyr0dr,7,postexp,Risk,1578603642,8,1,False
1,53,6ccyr0dr,8,postexp,Pref1,1578603668,26,1,False
1,53,6ccyr0dr,9,postexp,Pref2,1578603683,15,1,False
1,53,6ccyr0dr,10,postexp,Demographics,1578603712,29,1,False
1,53,6ccyr0dr,11,postexp,ResultsTask,1578603721,9,1,False
1,54,9d7fy4ye,1,tt,Instructions,1578603707,14,1,False
1,54,9d7fy4ye,2,tt,Task,1578603763,56,1,False
1,54,9d7fy4ye,3,tt,BeliefInstructions,1578603770,7,1,False
1,54,9d7fy4ye,4,tt,Beliefs,1578603814,44,1,False
1,54,9d7fy4ye,5,tt,Questions,1578603883,69,1,False
1,54,9d7fy4ye,6,wordscra,Task,1578603984,101,1,False
1,54,9d7fy4ye,7,postexp,Risk,1578603993,9,1,False
1,54,9d7fy4ye,8,postexp,Pref1,1578604042,49,1,False
1,54,9d7fy4ye,9,postexp,Pref2,1578604058,16,1,False
1,54,9d7fy4ye,10,postexp,Demographics,1578604101,43,1,False
1,54,9d7fy4ye,11,postexp,ResultsTask,1578604116,15,1,False
1,56,jn6resuz,1,tt,Instructions,1578626675,30,1,False
1,56,jn6resuz,2,tt,Task,1578626698,23,1,False
1,56,jn6resuz,3,tt,BeliefInstructions,1578626703,5,1,False
1,56,jn6resuz,4,tt,Beliefs,1578626736,33,1,False
1,56,jn6resuz,5,tt,Questions,1578626744,8,1,False
1,56,jn6resuz,6,wordscra,Task,1578626783,39,1,False
1,56,jn6resuz,7,postexp,Risk,1578626789,6,1,False
1,56,jn6resuz,8,postexp,Pref1,1578626806,17,1,False
1,56,jn6resuz,9,postexp,Pref2,1578626817,11,1,False
1,56,jn6resuz,10,postexp,Demographics,1578626840,23,1,False
1,56,jn6resuz,11,postexp,ResultsTask,1578626852,12,1,False
1,57,bdnwekjn,1,tt,Instructions,1578640034,49,1,False
1,57,bdnwekjn,2,tt,Task,1578640059,25,1,False
1,57,bdnwekjn,3,tt,BeliefInstructions,1578640072,13,1,False
1,57,bdnwekjn,4,tt,Beliefs,1578640112,40,1,False
1,57,bdnwekjn,5,tt,Questions,1578640132,20,1,False
1,57,bdnwekjn,6,wordscra,Task,1578640191,59,1,False
1,57,bdnwekjn,7,postexp,Risk,1578640201,10,1,False
1,57,bdnwekjn,8,postexp,Pref1,1578640246,45,1,False
1,57,bdnwekjn,9,postexp,Pref2,1578640268,22,1,False
1,57,bdnwekjn,10,postexp,Demographics,1578640317,49,1,False
1,57,bdnwekjn,11,postexp,ResultsTask,1578640327,10,1,False
1,59,n55t7uas,1,tt,Instructions,1578643809,91,1,False
1,59,n55t7uas,2,tt,Task,1578643871,62,1,False
1,59,n55t7uas,3,tt,BeliefInstructions,1578643893,22,1,False
1,59,n55t7uas,4,tt,Beliefs,1578643939,46,1,False
1,59,n55t7uas,5,tt,Questions,1578643961,22,1,False
1,59,n55t7uas,6,wordscra,Task,1578644006,45,1,False
1,59,n55t7uas,7,postexp,Risk,1578644024,18,1,False
1,59,n55t7uas,8,postexp,Pref1,1578644069,45,1,False
1,59,n55t7uas,9,postexp,Pref2,1578644090,21,1,False
1,59,n55t7uas,10,postexp,Demographics,1578644130,40,1,False
1,59,n55t7uas,11,postexp,ResultsTask,1578644140,10,1,False
1,61,p52zrhke,1,tt,Instructions,1578653335,47,1,False
1,61,p52zrhke,2,tt,Task,1578653360,25,1,False
1,61,p52zrhke,3,tt,BeliefInstructions,1578653372,12,1,False
1,61,p52zrhke,4,tt,Beliefs,1578653388,16,1,False
1,61,p52zrhke,5,tt,Questions,1578653399,11,1,False
1,61,p52zrhke,6,wordscra,Task,1578653448,49,1,False
1,61,p52zrhke,7,postexp,Risk,1578653455,7,1,False
1,61,p52zrhke,8,postexp,Pref1,1578653480,25,1,False
1,61,p52zrhke,9,postexp,Pref2,1578653491,11,1,False
1,61,p52zrhke,10,postexp,Demographics,1578653512,21,1,False
1,61,p52zrhke,11,postexp,ResultsTask,1578653522,10,1,False
1,62,xnzl5ag3,1,tt,Instructions,1578658492,44,1,False
1,62,xnzl5ag3,2,tt,Task,1578658518,26,1,False
1,62,xnzl5ag3,3,tt,BeliefInstructions,1578658521,3,1,False
1,62,xnzl5ag3,4,tt,Beliefs,1578658548,27,1,False
1,62,xnzl5ag3,5,tt,Questions,1578658564,16,1,False
1,62,xnzl5ag3,6,wordscra,Task,1578658679,115,1,False
1,62,xnzl5ag3,7,postexp,Risk,1578658696,17,1,False
1,62,xnzl5ag3,8,postexp,Pref1,1578658761,65,1,False
1,62,xnzl5ag3,9,postexp,Pref2,1578658781,20,1,False
1,62,xnzl5ag3,10,postexp,Demographics,1578658810,29,1,False
1,62,xnzl5ag3,11,postexp,ResultsTask,1578658815,5,1,False
1,63,yvcxjz4g,1,tt,Instructions,1578659850,24,1,False
1,63,yvcxjz4g,2,tt,Task,1578659867,17,1,False
1,63,yvcxjz4g,3,tt,BeliefInstructions,1578659885,18,1,False
1,63,yvcxjz4g,4,tt,Beliefs,1578659905,20,1,False
1,63,yvcxjz4g,5,tt,Questions,1578659917,12,1,False
1,63,yvcxjz4g,6,wordscra,Task,1578659955,38,1,False
1,63,yvcxjz4g,7,postexp,Risk,1578659978,23,1,False
1,63,yvcxjz4g,8,postexp,Pref1,1578659993,15,1,False
1,63,yvcxjz4g,9,postexp,Pref2,1578660031,38,1,False
1,63,yvcxjz4g,10,postexp,Demographics,1578660063,32,1,False
1,63,yvcxjz4g,11,postexp,ResultsTask,1578660068,5,1,False
1,64,cvjjx9od,1,tt,Instructions,1578660842,49,1,False
1,64,cvjjx9od,2,tt,Task,1578660869,27,1,False
1,64,cvjjx9od,3,tt,BeliefInstructions,1578660879,10,1,False
1,64,cvjjx9od,4,tt,Beliefs,1578660917,38,1,False
1,64,cvjjx9od,5,tt,Questions,1578660929,12,1,False
1,64,cvjjx9od,6,wordscra,Task,1578660982,53,1,False
1,64,cvjjx9od,7,postexp,Risk,1578660990,8,1,False
1,64,cvjjx9od,8,postexp,Pref1,1578661015,25,1,False
1,64,cvjjx9od,9,postexp,Pref2,1578661032,17,1,False
1,64,cvjjx9od,10,postexp,Demographics,1578661061,29,1,False
1,64,cvjjx9od,11,postexp,ResultsTask,1578661075,14,1,False
1,65,7t966psr,1,tt,Instructions,1578667594,73,1,False
1,65,7t966psr,2,tt,Task,1578667655,61,1,False
1,65,7t966psr,3,tt,BeliefInstructions,1578667671,16,1,False
1,65,7t966psr,4,tt,Beliefs,1578667726,55,1,False
1,65,7t966psr,5,tt,Questions,1578667760,34,1,False
1,65,7t966psr,6,wordscra,Task,1578667826,66,1,False
1,65,7t966psr,7,postexp,Risk,1578667838,12,1,False
1,65,7t966psr,8,postexp,Pref1,1578667863,25,1,False
1,65,7t966psr,9,postexp,Pref2,1578667890,27,1,False
1,65,7t966psr,10,postexp,Demographics,1578667922,32,1,False
1,65,7t966psr,11,postexp,ResultsTask,1578667932,10,1,False
1,66,htht7h2q,1,tt,Instructions,1578677148,201,1,False
1,66,htht7h2q,2,tt,Task,1578677271,123,1,False
1,66,htht7h2q,3,tt,BeliefInstructions,1578677278,7,1,False
1,66,htht7h2q,4,tt,Beliefs,1578677307,29,1,False
1,66,htht7h2q,5,tt,Questions,1578677318,11,1,False
1,66,htht7h2q,6,wordscra,Task,1578677394,76,1,False
1,66,htht7h2q,7,postexp,Risk,1578677412,18,1,False
1,66,htht7h2q,8,postexp,Pref1,1578677432,20,1,False
1,66,htht7h2q,9,postexp,Pref2,1578677467,35,1,False
1,66,htht7h2q,10,postexp,Demographics,1578677534,67,1,False
1,66,htht7h2q,11,postexp,ResultsTask,1578677566,32,1,False
1,67,5ox415hd,1,tt,Instructions,1578678128,68,1,False
1,67,5ox415hd,2,tt,Task,1578678162,34,1,False
1,67,5ox415hd,3,tt,BeliefInstructions,1578678171,9,1,False
1,67,5ox415hd,4,tt,Beliefs,1578678216,45,1,False
1,67,5ox415hd,5,tt,Questions,1578678245,29,1,False
1,67,5ox415hd,6,wordscra,Task,1578678291,46,1,False
1,67,5ox415hd,7,postexp,Risk,1578678300,9,1,False
1,67,5ox415hd,8,postexp,Pref1,1578678337,37,1,False
1,67,5ox415hd,9,postexp,Pref2,1578678362,25,1,False
1,67,5ox415hd,10,postexp,Demographics,1578678409,47,1,False
1,67,5ox415hd,11,postexp,ResultsTask,1578678417,8,1,False
1,68,cwtw8h6m,1,tt,Instructions,1578687799,26,1,False
1,68,cwtw8h6m,2,tt,Task,1578687820,21,1,False
1,68,cwtw8h6m,3,tt,BeliefInstructions,1578687827,7,1,False
1,68,cwtw8h6m,4,tt,Beliefs,1578687847,20,1,False
1,68,cwtw8h6m,5,tt,Questions,1578687857,10,1,False
1,68,cwtw8h6m,6,wordscra,Task,1578687892,35,1,False
1,68,cwtw8h6m,7,postexp,Risk,1578687901,9,1,False
1,68,cwtw8h6m,8,postexp,Pref1,1578687919,18,1,False
1,68,cwtw8h6m,9,postexp,Pref2,1578687929,10,1,False
1,68,cwtw8h6m,10,postexp,Demographics,1578687948,19,1,False
1,68,cwtw8h6m,11,postexp,ResultsTask,1578687956,8,1,False
1,69,m3rg4j4n,1,tt,Instructions,1578694422,70,1,False
1,69,m3rg4j4n,2,tt,Task,1578694482,60,1,False
1,69,m3rg4j4n,3,tt,BeliefInstructions,1578694501,19,1,False
1,69,m3rg4j4n,4,tt,Beliefs,1578694590,89,1,False
1,69,m3rg4j4n,5,tt,Questions,1578694610,20,1,False
1,69,m3rg4j4n,6,wordscra,Task,1578694686,76,1,False
1,69,m3rg4j4n,7,postexp,Risk,1578694702,16,1,False
1,69,m3rg4j4n,8,postexp,Pref1,1578694744,42,1,False
1,69,m3rg4j4n,9,postexp,Pref2,1578694768,24,1,False
1,69,m3rg4j4n,10,postexp,Demographics,1578694848,80,1,False
1,69,m3rg4j4n,11,postexp,ResultsTask,1578694865,17,1,False
1,70,gblrjz86,1,tt,Instructions,1578695147,36,1,False
1,70,gblrjz86,2,tt,Task,1578695171,24,1,False
1,70,gblrjz86,3,tt,BeliefInstructions,1578695189,18,1,False
1,70,gblrjz86,4,tt,Beliefs,1578695330,141,1,False
1,70,gblrjz86,5,tt,Questions,1578695347,17,1,False
1,70,gblrjz86,6,wordscra,Task,1578695462,115,1,False
1,70,gblrjz86,7,postexp,Risk,1578695469,7,1,False
1,70,gblrjz86,8,postexp,Pref1,1578695499,30,1,False
1,70,gblrjz86,9,postexp,Pref2,1578695527,28,1,False
1,70,gblrjz86,10,postexp,Demographics,1578695607,80,1,False
1,70,gblrjz86,11,postexp,ResultsTask,1578695619,12,1,False
1,71,i8kw6993,1,tt,Instructions,1578695536,50,1,False
1,71,i8kw6993,2,tt,Task,1578695566,30,1,False
1,71,i8kw6993,3,tt,BeliefInstructions,1578695585,19,1,False
1,71,i8kw6993,4,tt,Beliefs,1578695623,38,1,False
1,71,i8kw6993,5,tt,Questions,1578695638,15,1,False
1,71,i8kw6993,6,wordscra,Task,1578695702,64,1,False
1,71,i8kw6993,7,postexp,Risk,1578695708,6,1,False
1,71,i8kw6993,8,postexp,Pref1,1578695734,26,1,False
1,71,i8kw6993,9,postexp,Pref2,1578695748,14,1,False
1,71,i8kw6993,10,postexp,Demographics,1578695774,26,1,False
1,71,i8kw6993,11,postexp,ResultsTask,1578695783,9,1,False
1,72,5hg4n3nk,1,tt,Instructions,1578697169,27,1,False
1,72,5hg4n3nk,2,tt,Task,1578697227,58,1,False
1,72,5hg4n3nk,3,tt,BeliefInstructions,1578697386,159,1,False
1,72,5hg4n3nk,4,tt,Beliefs,1578697429,43,1,False
1,72,5hg4n3nk,5,tt,Questions,1578697444,15,1,False
1,72,5hg4n3nk,6,wordscra,Task,1578697500,56,1,False
1,72,5hg4n3nk,7,postexp,Risk,1578697507,7,1,False
1,72,5hg4n3nk,8,postexp,Pref1,1578697536,29,1,False
1,72,5hg4n3nk,9,postexp,Pref2,1578697549,13,1,False
1,72,5hg4n3nk,10,postexp,Demographics,1578697595,46,1,False
1,72,5hg4n3nk,11,postexp,ResultsTask,1578697611,16,1,False
1,73,h14qp1uc,1,tt,Instructions,1578699002,42,1,False
1,73,h14qp1uc,2,tt,Task,1578699037,35,1,False
1,73,h14qp1uc,3,tt,BeliefInstructions,1578699052,15,1,False
1,73,h14qp1uc,4,tt,Beliefs,1578699092,40,1,False
1,73,h14qp1uc,5,tt,Questions,1578699114,22,1,False
1,73,h14qp1uc,6,wordscra,Task,1578699147,33,1,False
1,73,h14qp1uc,7,postexp,Risk,1578699161,14,1,False
1,73,h14qp1uc,8,postexp,Pref1,1578699193,32,1,False
1,73,h14qp1uc,9,postexp,Pref2,1578699227,34,1,False
1,73,h14qp1uc,10,postexp,Demographics,1578699263,36,1,False
1,73,h14qp1uc,11,postexp,ResultsTask,1578699279,16,1,False
1,74,z25gijki,1,tt,Instructions,1578699262,47,1,False
1,74,z25gijki,2,tt,Task,1578699283,21,1,False
1,74,z25gijki,3,tt,BeliefInstructions,1578699301,18,1,False
1,74,z25gijki,4,tt,Beliefs,1578699313,12,1,False
1,74,z25gijki,5,tt,Questions,1578699326,13,1,False
1,74,z25gijki,6,wordscra,Task,1578699396,70,1,False
1,74,z25gijki,7,postexp,Risk,1578699404,8,1,False
1,74,z25gijki,8,postexp,Pref1,1578699427,23,1,False
1,74,z25gijki,9,postexp,Pref2,1578699439,12,1,False
1,74,z25gijki,10,postexp,Demographics,1578699478,39,1,False
1,74,z25gijki,11,postexp,ResultsTask,1578699499,21,1,False
1,76,1avzj2oq,1,tt,Instructions,1578722296,203,1,False
1,76,1avzj2oq,2,tt,Task,1578722347,51,1,False
1,76,1avzj2oq,3,tt,BeliefInstructions,1578722359,12,1,False
1,76,1avzj2oq,4,tt,Beliefs,1578722410,51,1,False
1,76,1avzj2oq,5,tt,Questions,1578722646,236,1,False
1,76,1avzj2oq,6,wordscra,Task,1578722774,128,1,False
1,76,1avzj2oq,7,postexp,Risk,1578722790,16,1,False
1,76,1avzj2oq,8,postexp,Pref1,1578722945,155,1,False
1,76,1avzj2oq,9,postexp,Pref2,1578722971,26,1,False
1,76,1avzj2oq,10,postexp,Demographics,1578723019,48,1,False
1,76,1avzj2oq,11,postexp,ResultsTask,1578723039,20,1,False
1,77,kpjf42ki,1,tt,Instructions,1578745490,43,1,False
1,77,kpjf42ki,2,tt,Task,1578745521,31,1,False
1,77,kpjf42ki,3,tt,BeliefInstructions,1578745532,11,1,False
1,77,kpjf42ki,4,tt,Beliefs,1578745558,26,1,False
1,77,kpjf42ki,5,tt,Questions,1578745572,14,1,False
1,77,kpjf42ki,6,wordscra,Task,1578745665,93,1,False
1,77,kpjf42ki,7,postexp,Risk,1578745694,29,1,False
1,77,kpjf42ki,8,postexp,Pref1,1578745721,27,1,False
1,77,kpjf42ki,9,postexp,Pref2,1578745742,21,1,False
1,77,kpjf42ki,10,postexp,Demographics,1578745782,40,1,False
1,77,kpjf42ki,11,postexp,ResultsTask,1578745792,10,1,False
1,78,gyb04736,1,tt,Instructions,1578752624,62,1,False
1,78,gyb04736,2,tt,Task,1578752672,48,1,False
1,78,gyb04736,3,tt,BeliefInstructions,1578752679,7,1,False
1,78,gyb04736,4,tt,Beliefs,1578752742,63,1,False
1,78,gyb04736,5,tt,Questions,1578752757,15,1,False
1,78,gyb04736,6,wordscra,Task,1578752819,62,1,False
1,78,gyb04736,7,postexp,Risk,1578752827,8,1,False
1,78,gyb04736,8,postexp,Pref1,1578752858,31,1,False
1,78,gyb04736,9,postexp,Pref2,1578752880,22,1,False
1,78,gyb04736,10,postexp,Demographics,1578753054,174,1,False
1,78,gyb04736,11,postexp,ResultsTask,1578753065,11,1,False
1,79,sl2vgkok,1,tt,Instructions,1578756226,544,1,False
1,79,sl2vgkok,2,tt,Task,1578756423,197,1,False
1,79,sl2vgkok,3,tt,BeliefInstructions,1578756433,10,1,False
1,79,sl2vgkok,4,tt,Beliefs,1578756600,167,1,False
1,79,sl2vgkok,5,tt,Questions,1578756680,80,1,False
1,79,sl2vgkok,6,wordscra,Task,1578756744,64,1,False
1,79,sl2vgkok,7,postexp,Risk,1578756804,60,1,False
1,79,sl2vgkok,8,postexp,Pref1,1578756841,37,1,False
1,79,sl2vgkok,9,postexp,Pref2,1578756866,25,1,False
1,79,sl2vgkok,10,postexp,Demographics,1578756907,41,1,False
1,79,sl2vgkok,11,postexp,ResultsTask,1578756914,7,1,False
1,80,lhqvrusv,1,tt,Instructions,1578761358,57,1,False
1,80,lhqvrusv,2,tt,Task,1578761397,39,1,False
1,80,lhqvrusv,3,tt,BeliefInstructions,1578761420,23,1,False
1,80,lhqvrusv,4,tt,Beliefs,1578761468,48,1,False
1,80,lhqvrusv,5,tt,Questions,1578761489,21,1,False
1,80,lhqvrusv,6,wordscra,Task,1578761545,56,1,False
1,80,lhqvrusv,7,postexp,Risk,1578761557,12,1,False
1,80,lhqvrusv,8,postexp,Pref1,1578761588,31,1,False
1,80,lhqvrusv,9,postexp,Pref2,1578761616,28,1,False
1,80,lhqvrusv,10,postexp,Demographics,1578761649,33,1,False
1,80,lhqvrusv,11,postexp,ResultsTask,1578761657,8,1,False
1,81,03zfungz,1,tt,Instructions,1578763686,81,1,False
1,81,03zfungz,2,tt,Task,1578763752,66,1,False
1,81,03zfungz,3,tt,BeliefInstructions,1578763764,12,1,False
1,81,03zfungz,4,tt,Beliefs,1578763815,51,1,False
1,81,03zfungz,5,tt,Questions,1578763843,28,1,False
1,81,03zfungz,6,wordscra,Task,1578763917,74,1,False
1,82,1uegxtb8,1,tt,Instructions,1578765884,45,1,False
1,82,1uegxtb8,2,tt,Task,1578765912,28,1,False
1,82,1uegxtb8,3,tt,BeliefInstructions,1578765920,8,1,False
1,82,1uegxtb8,4,tt,Beliefs,1578765952,32,1,False
1,82,1uegxtb8,5,tt,Questions,1578765964,12,1,False
1,82,1uegxtb8,6,wordscra,Task,1578766009,45,1,False
1,82,1uegxtb8,7,postexp,Risk,1578766015,6,1,False
1,82,1uegxtb8,8,postexp,Pref1,1578766038,23,1,False
1,82,1uegxtb8,9,postexp,Pref2,1578766052,14,1,False
1,82,1uegxtb8,10,postexp,Demographics,1578766077,25,1,False
1,82,1uegxtb8,11,postexp,ResultsTask,1578766105,28,1,False
1,84,pj1ao4zx,1,tt,Instructions,1578791117,36,1,False
1,84,pj1ao4zx,2,tt,Task,1578791138,21,1,False
1,84,pj1ao4zx,3,tt,BeliefInstructions,1578791152,14,1,False
1,84,pj1ao4zx,4,tt,Beliefs,1578791181,29,1,False
1,84,pj1ao4zx,5,tt,Questions,1578791196,15,1,False
1,84,pj1ao4zx,6,wordscra,Task,1578791258,62,1,False
1,84,pj1ao4zx,7,postexp,Risk,1578791269,11,1,False
1,84,pj1ao4zx,8,postexp,Pref1,1578791302,33,1,False
1,84,pj1ao4zx,9,postexp,Pref2,1578791320,18,1,False
1,84,pj1ao4zx,10,postexp,Demographics,1578791466,146,1,False
1,84,pj1ao4zx,11,postexp,ResultsTask,1578791477,11,1,False
1,85,mipokmd9,1,tt,Instructions,1578793580,9,1,False
1,85,mipokmd9,2,tt,Task,1578793640,60,1,False
1,85,mipokmd9,3,tt,BeliefInstructions,1578793643,3,1,False
1,85,mipokmd9,4,tt,Beliefs,1578793737,94,1,False
1,85,mipokmd9,5,tt,Questions,1578793773,36,1,False
1,85,mipokmd9,6,wordscra,Task,1578793894,121,1,False
1,85,mipokmd9,7,postexp,Risk,1578793961,67,1,False
1,85,mipokmd9,8,postexp,Pref1,1578794055,94,1,False
1,85,mipokmd9,9,postexp,Pref2,1578794090,35,1,False
1,85,mipokmd9,10,postexp,Demographics,1578794140,50,1,False
1,85,mipokmd9,11,postexp,ResultsTask,1578794163,23,1,False
1,86,h4jw3ytz,1,tt,Instructions,1578825609,56,1,False
1,86,h4jw3ytz,2,tt,Task,1578825643,34,1,False
1,86,h4jw3ytz,3,tt,BeliefInstructions,1578825653,10,1,False
1,86,h4jw3ytz,4,tt,Beliefs,1578825698,45,1,False
1,86,h4jw3ytz,5,tt,Questions,1578825711,13,1,False
1,86,h4jw3ytz,6,wordscra,Task,1578825820,109,1,False
1,86,h4jw3ytz,7,postexp,Risk,1578825829,9,1,False
1,86,h4jw3ytz,8,postexp,Pref1,1578825860,31,1,False
1,86,h4jw3ytz,9,postexp,Pref2,1578825872,12,1,False
1,86,h4jw3ytz,10,postexp,Demographics,1578825904,32,1,False
1,86,h4jw3ytz,11,postexp,ResultsTask,1578825910,6,1,False
1,87,dnxp4tlk,1,tt,Instructions,1578826189,250,1,False
1,87,dnxp4tlk,2,tt,Task,1578826217,28,1,False
1,87,dnxp4tlk,3,tt,BeliefInstructions,1578826228,11,1,False
1,87,dnxp4tlk,4,tt,Beliefs,1578826253,25,1,False
1,87,dnxp4tlk,5,tt,Questions,1578826264,11,1,False
1,87,dnxp4tlk,6,wordscra,Task,1578826338,74,1,False
1,87,dnxp4tlk,7,postexp,Risk,1578826344,6,1,False
1,87,dnxp4tlk,8,postexp,Pref1,1578826360,16,1,False
1,87,dnxp4tlk,9,postexp,Pref2,1578826372,12,1,False
1,87,dnxp4tlk,10,postexp,Demographics,1578826409,37,1,False
1,87,dnxp4tlk,11,postexp,ResultsTask,1578826416,7,1,False
1,88,2y48fb3t,1,tt,Instructions,1578838851,85,1,False
1,88,2y48fb3t,2,tt,Task,1578838900,49,1,False
1,88,2y48fb3t,3,tt,BeliefInstructions,1578838908,8,1,False
1,88,2y48fb3t,4,tt,Beliefs,1578839062,154,1,False
1,88,2y48fb3t,5,tt,Questions,1578839081,19,1,False
1,88,2y48fb3t,6,wordscra,Task,1578839135,54,1,False
1,88,2y48fb3t,7,postexp,Risk,1578839147,12,1,False
1,88,2y48fb3t,8,postexp,Pref1,1578839179,32,1,False
1,88,2y48fb3t,9,postexp,Pref2,1578839198,19,1,False
1,88,2y48fb3t,10,postexp,Demographics,1578839246,48,1,False
1,88,2y48fb3t,11,postexp,ResultsTask,1578839262,16,1,False
1,89,truddunu,1,tt,Instructions,1578840358,55,1,False
1,89,truddunu,2,tt,Task,1578840401,43,1,False
1,89,truddunu,3,tt,BeliefInstructions,1578840424,23,1,False
1,89,truddunu,4,tt,Beliefs,1578840473,49,1,False
1,89,truddunu,5,tt,Questions,1578840499,26,1,False
1,89,truddunu,6,wordscra,Task,1578840627,128,1,False
1,89,truddunu,7,postexp,Risk,1578840643,16,1,False
1,89,truddunu,8,postexp,Pref1,1578840676,33,1,False
1,89,truddunu,9,postexp,Pref2,1578840692,16,1,False
1,89,truddunu,10,postexp,Demographics,1578840729,37,1,False
1,89,truddunu,11,postexp,ResultsTask,1578840746,17,1,False
1,90,ddxrf8jd,1,tt,Instructions,1578853654,61,1,False
1,90,ddxrf8jd,2,tt,Task,1578853694,40,1,False
1,90,ddxrf8jd,3,tt,BeliefInstructions,1578853714,20,1,False
1,90,ddxrf8jd,4,tt,Beliefs,1578853742,28,1,False
1,90,ddxrf8jd,5,tt,Questions,1578853767,25,1,False
1,90,ddxrf8jd,6,wordscra,Task,1578853817,50,1,False
1,90,ddxrf8jd,7,postexp,Risk,1578853859,42,1,False
1,90,ddxrf8jd,8,postexp,Pref1,1578853884,25,1,False
1,90,ddxrf8jd,9,postexp,Pref2,1578853912,28,1,False
1,90,ddxrf8jd,10,postexp,Demographics,1578853961,49,1,False
1,90,ddxrf8jd,11,postexp,ResultsTask,1578853983,22,1,False
1,91,9y3gwqqg,1,tt,Instructions,1578866495,111,1,False
1,91,9y3gwqqg,2,tt,Task,1578866537,42,1,False
1,91,9y3gwqqg,3,tt,BeliefInstructions,1578866558,21,1,False
1,91,9y3gwqqg,4,tt,Beliefs,1578866610,52,1,False
1,91,9y3gwqqg,5,tt,Questions,1578866652,42,1,False
1,91,9y3gwqqg,6,wordscra,Task,1578866730,78,1,False
1,91,9y3gwqqg,7,postexp,Risk,1578866745,15,1,False
1,91,9y3gwqqg,8,postexp,Pref1,1578866787,42,1,False
1,91,9y3gwqqg,9,postexp,Pref2,1578866814,27,1,False
1,91,9y3gwqqg,10,postexp,Demographics,1578866889,75,1,False
1,91,9y3gwqqg,11,postexp,ResultsTask,1578866908,19,1,False
1,92,s2vm3q2i,1,tt,Instructions,1578872596,59,1,False
1,92,s2vm3q2i,2,tt,Task,1578872622,26,1,False
1,92,s2vm3q2i,3,tt,BeliefInstructions,1578872634,12,1,False
1,92,s2vm3q2i,4,tt,Beliefs,1578872669,35,1,False
1,92,s2vm3q2i,5,tt,Questions,1578872680,11,1,False
1,92,s2vm3q2i,6,wordscra,Task,1578872762,82,1,False
1,92,s2vm3q2i,7,postexp,Risk,1578872769,7,1,False
1,92,s2vm3q2i,8,postexp,Pref1,1578872801,32,1,False
1,92,s2vm3q2i,9,postexp,Pref2,1578872819,18,1,False
1,92,s2vm3q2i,10,postexp,Demographics,1578872863,44,1,False
1,92,s2vm3q2i,11,postexp,ResultsTask,1578872875,12,1,False
1,93,4bfiqtvi,1,tt,Instructions,1578882040,35,1,False
1,93,4bfiqtvi,2,tt,Task,1578882079,39,1,False
1,93,4bfiqtvi,3,tt,BeliefInstructions,1578882101,22,1,False
1,93,4bfiqtvi,4,tt,Beliefs,1578882142,41,1,False
1,93,4bfiqtvi,5,tt,Questions,1578882179,37,1,False
1,93,4bfiqtvi,6,wordscra,Task,1578882283,104,1,False
1,93,4bfiqtvi,7,postexp,Risk,1578882299,16,1,False
1,93,4bfiqtvi,8,postexp,Pref1,1578882333,34,1,False
1,93,4bfiqtvi,9,postexp,Pref2,1578882361,28,1,False
1,93,4bfiqtvi,10,postexp,Demographics,1578882397,36,1,False
1,93,4bfiqtvi,11,postexp,ResultsTask,1578882410,13,1,False
1,94,qevxws01,1,tt,Instructions,1578900298,45,1,False
1,94,qevxws01,2,tt,Task,1578900324,26,1,False
1,94,qevxws01,3,tt,BeliefInstructions,1578900339,15,1,False
1,94,qevxws01,4,tt,Beliefs,1578900355,16,1,False
1,94,qevxws01,5,tt,Questions,1578900370,15,1,False
1,94,qevxws01,6,wordscra,Task,1578900427,57,1,False
1,94,qevxws01,7,postexp,Risk,1578900434,7,1,False
1,94,qevxws01,8,postexp,Pref1,1578900469,35,1,False
1,94,qevxws01,9,postexp,Pref2,1578900493,24,1,False
1,94,qevxws01,10,postexp,Demographics,1578900551,58,1,False
1,94,qevxws01,11,postexp,ResultsTask,1578900564,13,1,False
1,95,3z1ce4m0,1,tt,Instructions,1578901954,8,1,False
1,95,3z1ce4m0,2,tt,Task,1578901982,28,1,False
1,95,3z1ce4m0,3,tt,BeliefInstructions,1578901984,2,1,False
1,97,l2av15jy,1,tt,Instructions,1578903926,39,1,False
1,97,l2av15jy,2,tt,Task,1578903948,22,1,False
1,97,l2av15jy,3,tt,BeliefInstructions,1578903959,11,1,False
1,97,l2av15jy,4,tt,Beliefs,1578903987,28,1,False
1,97,l2av15jy,5,tt,Questions,1578903997,10,1,False
1,97,l2av15jy,6,wordscra,Task,1578904055,58,1,False
1,97,l2av15jy,7,postexp,Risk,1578904060,5,1,False
1,97,l2av15jy,8,postexp,Pref1,1578904089,29,1,False
1,97,l2av15jy,9,postexp,Pref2,1578904104,15,1,False
1,97,l2av15jy,10,postexp,Demographics,1578904181,77,1,False
1,97,l2av15jy,11,postexp,ResultsTask,1578904192,11,1,False
1,98,0t6oeunu,1,tt,Instructions,1578904879,40,1,False
1,98,0t6oeunu,2,tt,Task,1578904907,28,1,False
1,98,0t6oeunu,3,tt,BeliefInstructions,1578904918,11,1,False
1,98,0t6oeunu,4,tt,Beliefs,1578904967,49,1,False
1,98,0t6oeunu,5,tt,Questions,1578904981,14,1,False
1,98,0t6oeunu,6,wordscra,Task,1578905021,40,1,False
1,98,0t6oeunu,7,postexp,Risk,1578905027,6,1,False
1,98,0t6oeunu,8,postexp,Pref1,1578905059,32,1,False
1,98,0t6oeunu,9,postexp,Pref2,1578905076,17,1,False
1,98,0t6oeunu,10,postexp,Demographics,1578905112,36,1,False
1,98,0t6oeunu,11,postexp,ResultsTask,1578905122,10,1,False
1,99,ha09731d,1,tt,Instructions,1578918771,10,1,False
1,100,qmv60cde,1,tt,Instructions,1578922085,33,1,False
1,100,qmv60cde,2,tt,Task,1578922114,29,1,False
1,100,qmv60cde,3,tt,BeliefInstructions,1578922124,10,1,False
1,100,qmv60cde,4,tt,Beliefs,1578922150,26,1,False
1,100,qmv60cde,5,tt,Questions,1578922164,14,1,False
1,100,qmv60cde,6,wordscra,Task,1578922202,38,1,False
1,100,qmv60cde,7,postexp,Risk,1578922213,11,1,False
1,100,qmv60cde,8,postexp,Pref1,1578922238,25,1,False
1,100,qmv60cde,9,postexp,Pref2,1578922286,48,1,False
1,100,qmv60cde,10,postexp,Demographics,1578922317,31,1,False
1,100,qmv60cde,11,postexp,ResultsTask,1578922325,8,1,False
1,101,pzpeegde,1,tt,Instructions,1578924161,71,1,False
1,101,pzpeegde,2,tt,Task,1578924181,20,1,False
1,101,pzpeegde,3,tt,BeliefInstructions,1578924193,12,1,False
1,101,pzpeegde,4,tt,Beliefs,1578924224,31,1,False
1,101,pzpeegde,5,tt,Questions,1578924243,19,1,False
1,101,pzpeegde,6,wordscra,Task,1578924393,150,1,False
1,101,pzpeegde,7,postexp,Risk,1578924399,6,1,False
1,101,pzpeegde,8,postexp,Pref1,1578924420,21,1,False
1,101,pzpeegde,9,postexp,Pref2,1578924438,18,1,False
1,101,pzpeegde,10,postexp,Demographics,1578924499,61,1,False
1,101,pzpeegde,11,postexp,ResultsTask,1578924511,12,1,False
1,102,ri58uojw,1,tt,Instructions,1578944569,30,1,False
1,102,ri58uojw,2,tt,Task,1578944601,32,1,False
1,102,ri58uojw,3,tt,BeliefInstructions,1578944606,5,1,False
1,102,ri58uojw,4,tt,Beliefs,1578944639,33,1,False
1,102,ri58uojw,5,tt,Questions,1578944649,10,1,False
1,102,ri58uojw,6,wordscra,Task,1578944826,177,1,False
1,102,ri58uojw,7,postexp,Risk,1578944840,14,1,False
1,102,ri58uojw,8,postexp,Pref1,1578944855,15,1,False
1,102,ri58uojw,9,postexp,Pref2,1578944866,11,1,False
1,102,ri58uojw,10,postexp,Demographics,1578944944,78,1,False
1,102,ri58uojw,11,postexp,ResultsTask,1578944950,6,1,False
1,103,6akkxxua,1,tt,Instructions,1578948243,61,1,False
1,103,6akkxxua,2,tt,Task,1578948285,42,1,False
1,103,6akkxxua,3,tt,BeliefInstructions,1578948316,31,1,False
1,103,6akkxxua,4,tt,Beliefs,1578948396,80,1,False
1,103,6akkxxua,5,tt,Questions,1578948419,23,1,False
1,103,6akkxxua,6,wordscra,Task,1578948511,92,1,False
1,103,6akkxxua,7,postexp,Risk,1578948537,26,1,False
1,103,6akkxxua,8,postexp,Pref1,1578948580,43,1,False
1,103,6akkxxua,9,postexp,Pref2,1578948603,23,1,False
1,103,6akkxxua,10,postexp,Demographics,1578948679,76,1,False
1,103,6akkxxua,11,postexp,ResultsTask,1578948695,16,1,False
